2020-05-10 10:34:26,742 Register: 683160022 has been started
2020-05-10 10:34:31,176 Cashier:  logged in
2020-05-10 10:34:33,765 Cashier: Ryan logged out
2020-05-10 10:34:39,895 Cashier: Ryan logged in
2020-05-10 17:38:39,289 Register: 907928432 has been started
2020-05-10 17:38:43,578 Cashier:  logged in
2020-05-10 17:39:33,562 Register: -925104371 has been started
2020-05-10 17:40:47,594 Cashier:  logged in
2020-05-10 17:42:29,364 Register: 860203058 has been started
2020-05-10 17:42:38,491 Cashier:  logged in
2020-05-10 17:48:36,313 Register: -1418610749 has been started
2020-05-10 17:48:51,800 Cashier:  logged in
2020-05-10 18:10:35,815 Register: -1460624109 has been started
2020-05-10 18:12:42,155 Register: 1295118729 has been started
2020-05-10 18:20:12,193 Register: 1154027571 has been started
2020-05-10 18:20:22,098 Register: 69691735 has been started
2020-05-10 18:22:19,167 Register: -65093063 has been started
2020-05-10 18:22:28,565 Cashier:  logged in
2020-05-10 18:23:07,762 Register: -788589887 has been started
2020-05-10 18:24:40,009 Register: -1133452182 has been started
2020-05-11 17:28:33,581 Cashier:  logged in
2020-05-11 17:28:54,057 Register: 1722701933 has been started
2020-05-12 10:09:00,836 Register: -1285165172 has been started
2020-05-12 10:09:05,219 Cashier:  logged in
2020-05-12 10:10:27,543 Item: null was added to the sale: -1534395327
2020-05-12 10:11:55,776 Register: -1505669423 has been started
2020-05-12 10:12:24,697 Cashier:  logged in
2020-05-12 10:14:10,638 Item: null was added to the sale: 1940500220
2020-05-12 10:14:19,689 Register: 2074854173 has been started
2020-05-12 10:14:59,796 Cashier:  logged in
2020-05-12 10:15:02,563 Register: 462765053 has been started
2020-05-12 10:15:06,888 Cashier:  logged in
2020-05-12 10:16:56,405 Register: -759187384 has been started
2020-05-12 10:17:03,329 Cashier:  logged in
2020-05-12 10:17:16,520 Item: null was added to the sale: 790024553
2020-05-12 10:17:19,180 Item: null was added to the sale: 790024553
2020-05-12 10:18:51,207 Register: -61946781 has been started
2020-05-12 10:21:49,378 Cashier:  logged in
2020-05-12 10:21:56,308 Register: -1413415669 has been started
2020-05-12 10:22:04,542 Cashier:  logged in
2020-05-12 10:22:50,122 Register: -1250412520 has been started
2020-05-12 10:23:22,661 Cashier:  logged in
2020-05-12 10:23:32,688 Register: 1472945943 has been started
2020-05-12 10:25:37,852 Cashier:  logged in
2020-05-12 10:25:44,478 Register: -1226293402 has been started
2020-05-12 10:27:10,532 Register: -455149144 has been started
2020-05-12 10:29:23,939 Register: 830147647 has been started
2020-05-12 10:30:05,647 Register: 1844038531 has been started
2020-05-12 10:30:24,786 Cashier:  logged in
2020-05-12 10:32:12,089 Item: null was added to the sale: -1153542340
2020-05-12 10:32:25,683 Register: -1878705397 has been started
2020-05-12 10:32:52,333 Cashier:  logged in
2020-05-12 10:32:56,211 Register: 1574435485 has been started
2020-05-12 10:33:05,944 Cashier:  logged in
2020-05-12 10:33:35,978 Item: null was added to the sale: -855289216
2020-05-12 10:37:15,282 Register: -294674152 has been started
2020-05-12 10:37:21,609 Cashier:  logged in
2020-05-12 10:37:38,021 Item: null was added to the sale: 660608010
2020-05-12 10:39:05,713 Register: 59132167 has been started
2020-05-12 10:39:17,056 Cashier:  logged in
2020-05-12 10:43:32,197 Item: null was added to the sale: -535495954
2020-05-12 10:43:42,419 Register: -1520870585 has been started
2020-05-12 10:43:56,131 Cashier:  logged in
2020-05-12 10:44:48,531 Item: Cleaner, Household, 5.99 was added to the sale: 531598401
2020-05-12 10:45:33,616 Item: Cleaner, Household, 5.99 was added to the sale: 531598401
2020-05-12 10:45:46,515 Item: Cleaner, Household, 5.99 was added to the sale: 531598401
2020-05-12 10:46:11,345 Item: Cleaner, Household, 5.99 was added to the sale: 531598401
2020-05-12 10:46:57,166 Item: Cleaner, Household, 5.99 was added to the sale: 531598401
2020-05-12 10:47:21,758 Item: null was added to the sale: 531598401
2020-05-12 10:47:27,807 Sale was canceled: 531598401
2020-05-12 10:54:36,812 Register: -2106321673 has been started
2020-05-12 10:54:49,117 Cashier:  logged in
2020-05-12 10:54:55,444 Item: Cleaner, Household, 5.99 was added to the sale: 1846422014
2020-05-12 10:55:42,221 Item: Cleaner, Household, 5.99 was added to the sale: 1846422014
2020-05-12 10:56:04,740 Sale: 1846422014 has been checked out
2020-05-12 10:59:52,961 Register: -779708916 has been started
2020-05-12 11:00:01,263 Cashier:  logged in
2020-05-12 11:00:11,635 Item: Cleaner, Household, 5.99 was added to the sale: 211628329
2020-05-12 11:00:51,917 Item: Cleaner, Household, 5.99 was added to the sale: 211628329
2020-05-12 11:01:13,614 Item: Desk, HomeFurnishing, 50.0 was added to the sale: 211628329
2020-05-12 11:01:26,117 Item: Cookies, Grocery, 2.99 was added to the sale: 211628329
2020-05-12 11:01:38,882 Sale: 211628329 has been checked out
2020-05-12 11:03:22,772 Register: 2108611892 has been started
2020-05-12 11:03:27,011 Cashier:  logged in
2020-05-12 11:03:35,377 Item: null was added to the sale: 1153569808
2020-05-12 11:03:52,429 Item: Cleaner, Household, 5.99 was added to the sale: 1153569808
2020-05-12 11:04:08,941 Sale was canceled: 1153569808
2020-05-12 11:13:25,004 Register: -896683393 has been started
2020-05-12 11:13:28,980 Cashier:  logged in
2020-05-12 11:13:35,880 Item: FIFA, Electronics, 60.99 was added to the sale: -1258287249
2020-05-12 11:13:49,125 Item: null was added to the sale: -1258287249
2020-05-12 11:13:53,562 Item: FIFA, Electronics, 60.99 was added to the sale: -1258287249
2020-05-12 11:13:58,722 Sale: -1258287249 has been checked out
2020-05-12 16:47:13,507 Register: -1218329000 has been started
2020-05-12 16:48:21,380 Cashier:  logged in
2020-05-12 16:48:39,083 Item: Cleaner, Household, 5.99 was added to the sale: 843435969
2020-05-12 16:48:44,424 Item: Cleaner, Household, 5.99 was added to the sale: 843435969
2020-05-12 16:49:00,468 Item: null was added to the sale: 843435969
2020-05-12 16:49:14,208 Item: Cleaner, Household, 5.99 was added to the sale: 843435969
2020-05-12 16:49:26,801 Item: Cleaner, Household, 5.99 was added to the sale: 843435969
2020-05-12 16:51:11,667 Register: -821630188 has been started
2020-05-12 16:51:17,058 Cashier:  logged in
2020-05-12 16:51:20,100 Item: null was added to the sale: 2099769026
2020-05-12 16:51:23,129 Item: null was added to the sale: 2099769026
2020-05-12 16:51:32,789 Item: Cleaner, Household, 5.99 was added to the sale: 2099769026
2020-05-12 16:51:39,442 Item: Cleaner, Household, 5.99 was added to the sale: 2099769026
2020-05-12 16:51:42,712 Item: Cleaner, Household, 5.99 was added to the sale: 2099769026
2020-05-12 16:51:55,876 Sale: 2099769026 has been checked out
2020-05-12 17:07:36,264 Register: -1581454365 has been started
2020-05-12 17:07:40,196 Cashier:  logged in
2020-05-12 17:08:04,369 Register: 1744903261 has been started
2020-05-12 17:08:10,871 Cashier:  logged in
2020-05-12 17:08:45,892 Register: -236398065 has been started
2020-05-12 17:08:51,334 Cashier:  logged in
2020-05-12 17:10:34,804 Register: -1198147122 has been started
2020-05-12 17:10:37,722 Cashier:  logged in
2020-05-12 17:12:16,182 Register: -1700419894 has been started
2020-05-12 17:12:20,358 Cashier:  logged in
2020-05-12 17:12:30,912 Cashier: Ryan logged out
2020-05-12 17:12:35,111 Cashier: Ryan logged in
2020-05-12 17:26:25,015 test
2020-05-12 17:26:25,021 Register: -173495494 has been started
2020-05-12 17:26:40,495 test
2020-05-12 17:26:40,499 Register: 281722239 has been started
2020-05-12 17:28:30,347 test
2020-05-12 17:28:30,358 Register: -1573704436 has been started
2020-05-12 17:30:38,433 test
2020-05-12 17:30:38,440 Register: 360857250 has been started
2020-05-12 17:31:03,461 test
2020-05-12 17:31:03,467 Register: 1286873350 has been started
2020-05-12 17:31:43,460 test
2020-05-12 17:31:43,466 Register: 1976215407 has been started
2020-05-12 17:33:36,297 test
2020-05-12 17:33:36,300 Register: -1917777171 has been started
2020-05-12 17:33:50,721 test
2020-05-12 17:33:50,726 Register: 1968970173 has been started
2020-05-12 17:34:09,849 test
2020-05-12 17:34:09,855 Register: 595265917 has been started
2020-05-12 17:38:14,327 Register: -1630015959 has been started
2020-05-12 17:41:51,461 Register: 1378594005 has been started
2020-05-12 17:41:57,968 Cashier:  logged in
2020-05-12 17:57:03,083 Register: -310645412 has been started
2020-05-12 18:06:42,217 Cashier:  logged in
2020-05-12 18:55:14,073 Register: 1123187643 has been started
2020-05-12 18:55:18,218 Cashier:  logged in
2020-05-12 18:55:29,603 Cashier: Ryan logged out
2020-05-12 18:55:33,039 Cashier: Ryan logged in
2020-05-12 18:55:47,227 Item: FIFA, Electronics, 60.99 was added to the sale: 819697477 at register #1123187643
2020-05-12 18:55:50,688 Item: FIFA, Electronics, 60.99 was added to the sale: 819697477 at register #1123187643
2020-05-12 18:55:56,466 Item: FIFA, Electronics, 60.99 was added to the sale: 819697477 at register #1123187643
2020-05-12 18:56:33,161 Item: FIFA, Electronics, 60.99 was added to the sale: 819697477 at register #1123187643
2020-05-12 18:56:38,333 Sale: 819697477 has been checked out at register #1123187643
2020-05-12 18:58:53,133 Register: 1709828535 has been started
2020-05-12 18:58:57,334 Cashier:  logged in
2020-05-12 18:59:03,225 Item: FIFA, Electronics, 60.99 was added to the sale: -2008680785 at register #1709828535
2020-05-12 18:59:05,950 Item: FIFA, Electronics, 60.99 was added to the sale: -2008680785 at register #1709828535
2020-05-12 18:59:08,340 Item: FIFA, Electronics, 60.99 was added to the sale: -2008680785 at register #1709828535
2020-05-12 19:04:36,420 Register: 1964443035 has been started
2020-05-12 19:04:40,744 Cashier:  logged in
2020-05-12 19:04:52,213 Item: null was added to the sale: -1808935860 at register #1964443035
2020-05-12 19:04:57,338 Item: FIFA, Electronics, 60.99 was added to the sale: -1808935860 at register #1964443035
2020-05-12 19:04:59,545 Item: FIFA, Electronics, 60.99 was added to the sale: -1808935860 at register #1964443035
2020-05-12 19:05:03,157 Item: Wipes, Household, 10.0 was added to the sale: -1808935860 at register #1964443035
2020-05-12 19:05:16,546 Sale: -1808935860 has been checked out at register #1964443035
2020-05-12 19:09:55,116 Register: 504058635 has been started
2020-05-12 19:10:00,784 Cashier:  logged in
2020-05-12 19:10:34,359 Item: null was added to the sale: 0 at register #504058635
2020-05-12 19:10:46,503 Item: FIFA, Electronics, 60.99 was added to the sale: 0 at register #504058635
2020-05-12 19:10:52,346 Item: FIFA, Electronics, 60.99 was added to the sale: 0 at register #504058635
2020-05-12 19:10:55,884 Sale: 0 has been checked out at register #504058635
2020-05-13 11:54:28,101 Register: 1389771360 has been started
2020-05-13 11:54:32,801 Cashier:  logged in
2020-05-13 12:14:20,038 Register: -1050056872 has been started
2020-05-13 12:14:22,750 Cashier:  logged in
2020-05-13 12:14:46,602 Item: Cleaner, Household, 5.99 was added to the sale: -235147053 at register #-1050056872
2020-05-13 12:14:59,205 Item: FIFA, Electronics, 60.99 was added to the sale: -235147053 at register #-1050056872
2020-05-13 12:15:03,964 Item: FIFA, Electronics, 60.99 was added to the sale: -235147053 at register #-1050056872
2020-05-13 12:15:18,454 Sale was canceled: -235147053 at register #-1050056872
2020-05-13 12:16:52,228 Register: 348508254 has been started
2020-05-13 12:17:43,207 Register: 538043364 has been started
2020-05-13 12:17:46,461 Cashier:  logged in
